<svg width="9" height="10" viewBox="0 0 9 10" fill="none" xmlns="http://www.w3.org/2000/svg">
<path d="M8.32698 4.19672L2.31099 0.691196C1.96508 0.489636 1.55621 0.497158 1.21716 0.711109C0.877891 0.925281 0.675537 1.30362 0.675537 1.72356V8.67443C0.675537 9.09237 0.876645 9.47005 1.21363 9.68444C1.38959 9.7964 1.58468 9.85259 1.78018 9.85259C1.95926 9.85259 2.13876 9.80547 2.30393 9.71077L8.32013 6.26565C8.67726 6.06099 8.90018 5.66561 8.90184 5.23351C8.9033 4.8014 8.68308 4.40425 8.32698 4.19672ZM2.27131 7.80004V2.60503L6.76757 5.2251L2.27131 7.80004Z" fill="#121212"/>
</svg>
