<svg width="17" height="18" viewBox="0 0 17 18" fill="none" xmlns="http://www.w3.org/2000/svg">
<path d="M13.2777 -1.02123e-07L1.21304e-06 8.85852L13.2777 17.717L16.4019 15.6327L6.24833 8.85852L16.4019 2.08436L13.2777 -1.02123e-07Z" fill="#FEBA08"/>
</svg>
